EESchema Schematic File Version 4
EELAYER 30 0
EELAYER END
$Descr A4 11693 8268
encoding utf-8
Sheet 1 1
Title ""
Date ""
Rev ""
Comp ""
Comment1 ""
Comment2 ""
Comment3 ""
Comment4 ""
$EndDescr
$Comp
L Interface_Expansion:MCP23017_SP U1
U 1 1 60D4F0A6
P 4050 3300
F 0 "U1" H 4050 4581 50  0000 C CNN
F 1 "MCP23017_SP" H 4050 4490 50  0000 C CNN
F 2 "Package_DIP:DIP-28_W7.62mm" H 4250 2300 50  0001 L CNN
F 3 "http://ww1.microchip.com/downloads/en/DeviceDoc/20001952C.pdf" H 4250 2200 50  0001 L CNN
	1    4050 3300
	1    0    0    -1
$EndComp
$Comp
L MCU_Module:Arduino_Nano_v3.x A1
U 1 1 60D505E3
P 1500 2100
F 0 "A1" H 1500 1011 50  0000 C CNN
F 1 "Arduino_Nano_v3.x" H 1500 920 50  0000 C CNN
F 2 "Module:Arduino_Nano" H 1500 2100 50  0001 C CIN
F 3 "http://www.mouser.com/pdfdocs/Gravitech_Arduino_Nano3_0.pdf" H 1500 2100 50  0001 C CNN
	1    1500 2100
	1    0    0    -1
$EndComp
$Comp
L Device:R R1
U 1 1 60D51B00
P 2550 1150
F 0 "R1" H 2620 1196 50  0000 L CNN
F 1 "4k7" H 2620 1105 50  0000 L CNN
F 2 "" V 2480 1150 50  0001 C CNN
F 3 "~" H 2550 1150 50  0001 C CNN
	1    2550 1150
	1    0    0    -1
$EndComp
$Comp
L Device:R R2
U 1 1 60D521D0
P 2900 1150
F 0 "R2" H 2970 1196 50  0000 L CNN
F 1 "4k7" H 2970 1105 50  0000 L CNN
F 2 "" V 2830 1150 50  0001 C CNN
F 3 "~" H 2900 1150 50  0001 C CNN
	1    2900 1150
	1    0    0    -1
$EndComp
$Comp
L Device:C C2
U 1 1 60D5245E
P 4300 1750
F 0 "C2" H 4415 1796 50  0000 L CNN
F 1 "100n" H 4415 1705 50  0000 L CNN
F 2 "" H 4338 1600 50  0001 C CNN
F 3 "~" H 4300 1750 50  0001 C CNN
	1    4300 1750
	1    0    0    -1
$EndComp
$Comp
L Device:R_Network04 RN1
U 1 1 60D536CF
P 2750 3100
F 0 "RN1" H 2938 3146 50  0000 L CNN
F 1 "4*3k3" H 2938 3055 50  0000 L CNN
F 2 "Resistor_THT:R_Array_SIP5" V 3025 3100 50  0001 C CNN
F 3 "http://www.vishay.com/docs/31509/csc.pdf" H 2750 3100 50  0001 C CNN
	1    2750 3100
	1    0    0    -1
$EndComp
$Comp
L Device:R_Network08 RN3
U 1 1 60D5459B
P 6950 1750
F 0 "RN3" H 7338 1796 50  0000 L CNN
F 1 "8*3k3" H 7338 1705 50  0000 L CNN
F 2 "Resistor_THT:R_Array_SIP9" V 7425 1750 50  0001 C CNN
F 3 "http://www.vishay.com/docs/31509/csc.pdf" H 6950 1750 50  0001 C CNN
	1    6950 1750
	1    0    0    -1
$EndComp
$Comp
L Device:R_Network08 RN2
U 1 1 60D55F15
P 5500 1750
F 0 "RN2" H 5888 1796 50  0000 L CNN
F 1 "8*3k3" H 5888 1705 50  0000 L CNN
F 2 "Resistor_THT:R_Array_SIP9" V 5975 1750 50  0001 C CNN
F 3 "http://www.vishay.com/docs/31509/csc.pdf" H 5500 1750 50  0001 C CNN
	1    5500 1750
	1    0    0    -1
$EndComp
$Comp
L Connector_Generic:Conn_02x03_Odd_Even J1
U 1 1 60D56DF3
P 2650 4750
F 0 "J1" V 2746 4562 50  0000 R CNN
F 1 "I2C base address" V 2655 4562 50  0000 R CNN
F 2 "" H 2650 4750 50  0001 C CNN
F 3 "~" H 2650 4750 50  0001 C CNN
	1    2650 4750
	0    -1   -1   0
$EndComp
$Comp
L Connector_Generic:Conn_02x10_Odd_Even J2
U 1 1 60D58119
P 9200 3350
F 0 "J2" H 9250 3967 50  0000 C CNN
F 1 "Conn_02x10_Odd_Even" H 9250 3876 50  0000 C CNN
F 2 "" H 9200 3350 50  0001 C CNN
F 3 "~" H 9200 3350 50  0001 C CNN
	1    9200 3350
	0    -1   -1   0
$EndComp
$Comp
L power:+5V #PWR02
U 1 1 60D5BED8
P 1700 800
F 0 "#PWR02" H 1700 650 50  0001 C CNN
F 1 "+5V" H 1715 973 50  0000 C CNN
F 2 "" H 1700 800 50  0001 C CNN
F 3 "" H 1700 800 50  0001 C CNN
	1    1700 800
	1    0    0    -1
$EndComp
$Comp
L power:+5V #PWR07
U 1 1 60D5CCBD
P 4050 800
F 0 "#PWR07" H 4050 650 50  0001 C CNN
F 1 "+5V" H 4065 973 50  0000 C CNN
F 2 "" H 4050 800 50  0001 C CNN
F 3 "" H 4050 800 50  0001 C CNN
	1    4050 800
	1    0    0    -1
$EndComp
$Comp
L power:GND #PWR01
U 1 1 60D5D91F
P 1600 3650
F 0 "#PWR01" H 1600 3400 50  0001 C CNN
F 1 "GND" H 1605 3477 50  0000 C CNN
F 2 "" H 1600 3650 50  0001 C CNN
F 3 "" H 1600 3650 50  0001 C CNN
	1    1600 3650
	1    0    0    -1
$EndComp
$Comp
L power:GND #PWR06
U 1 1 60D5E1AB
P 2550 5150
F 0 "#PWR06" H 2550 4900 50  0001 C CNN
F 1 "GND" H 2555 4977 50  0000 C CNN
F 2 "" H 2550 5150 50  0001 C CNN
F 3 "" H 2550 5150 50  0001 C CNN
	1    2550 5150
	1    0    0    -1
$EndComp
$Comp
L power:GND #PWR08
U 1 1 60D5E1E5
P 4050 5200
F 0 "#PWR08" H 4050 4950 50  0001 C CNN
F 1 "GND" H 4055 5027 50  0000 C CNN
F 2 "" H 4050 5200 50  0001 C CNN
F 3 "" H 4050 5200 50  0001 C CNN
	1    4050 5200
	1    0    0    -1
$EndComp
$Comp
L power:GND #PWR014
U 1 1 60D5E21F
P 9900 5200
F 0 "#PWR014" H 9900 4950 50  0001 C CNN
F 1 "GND" H 9905 5027 50  0000 C CNN
F 2 "" H 9900 5200 50  0001 C CNN
F 3 "" H 9900 5200 50  0001 C CNN
	1    9900 5200
	1    0    0    -1
$EndComp
$Comp
L Device:Jumper_NC_Small JP1
U 1 1 60D5E927
P 2250 2100
F 0 "JP1" H 2250 2312 50  0000 C CNN
F 1 "Arduino Prog" H 2250 2221 50  0000 C CNN
F 2 "" H 2250 2100 50  0001 C CNN
F 3 "~" H 2250 2100 50  0001 C CNN
	1    2250 2100
	0    1    1    0
$EndComp
$Comp
L Device:Jumper_NO_Small JP2
U 1 1 60D5F55F
P 8400 1550
F 0 "JP2" H 8400 1735 50  0000 C CNN
F 1 "EXT VCC" H 8400 1644 50  0000 C CNN
F 2 "" H 8400 1550 50  0001 C CNN
F 3 "~" H 8400 1550 50  0001 C CNN
	1    8400 1550
	0    -1   -1   0
$EndComp
Wire Wire Line
	1700 1100 1700 800
Wire Wire Line
	1600 3100 1600 3300
$Comp
L power:+5V #PWR04
U 1 1 60D61B91
P 2550 800
F 0 "#PWR04" H 2550 650 50  0001 C CNN
F 1 "+5V" H 2565 973 50  0000 C CNN
F 2 "" H 2550 800 50  0001 C CNN
F 3 "" H 2550 800 50  0001 C CNN
	1    2550 800
	1    0    0    -1
$EndComp
Wire Wire Line
	2550 800  2550 900
Wire Wire Line
	2900 1000 2900 900
Wire Wire Line
	2900 900  2550 900
Connection ~ 2550 900
Wire Wire Line
	2550 900  2550 1000
Wire Wire Line
	2000 2500 2550 2500
Wire Wire Line
	2550 2500 2550 1300
Wire Wire Line
	2900 1300 2900 2600
Wire Wire Line
	2900 2600 2000 2600
$Comp
L Device:CP C1
U 1 1 60D66D67
P 2250 3300
F 0 "C1" H 2368 3346 50  0000 L CNN
F 1 "10u" H 2368 3255 50  0000 L CNN
F 2 "" H 2288 3150 50  0001 C CNN
F 3 "~" H 2250 3300 50  0001 C CNN
	1    2250 3300
	1    0    0    -1
$EndComp
Wire Wire Line
	1500 3100 1500 3300
Wire Wire Line
	1500 3300 1600 3300
$Comp
L power:+5V #PWR012
U 1 1 60D6E90C
P 7750 8550
F 0 "#PWR012" H 7750 8400 50  0001 C CNN
F 1 "+5V" H 7765 8723 50  0000 C CNN
F 2 "" H 7750 8550 50  0001 C CNN
F 3 "" H 7750 8550 50  0001 C CNN
	1    7750 8550
	1    0    0    -1
$EndComp
$Comp
L power:+5V #PWR05
U 1 1 60D6EA0A
P 2550 2750
F 0 "#PWR05" H 2550 2600 50  0001 C CNN
F 1 "+5V" H 2565 2923 50  0000 C CNN
F 2 "" H 2550 2750 50  0001 C CNN
F 3 "" H 2550 2750 50  0001 C CNN
	1    2550 2750
	1    0    0    -1
$EndComp
$Comp
L power:+5V #PWR013
U 1 1 60D6EB08
P 8400 800
F 0 "#PWR013" H 8400 650 50  0001 C CNN
F 1 "+5V" H 8415 973 50  0000 C CNN
F 2 "" H 8400 800 50  0001 C CNN
F 3 "" H 8400 800 50  0001 C CNN
	1    8400 800
	1    0    0    -1
$EndComp
Wire Wire Line
	3350 2500 2550 2500
Connection ~ 2550 2500
Wire Wire Line
	3350 2600 2900 2600
Connection ~ 2900 2600
Wire Wire Line
	2550 2750 2550 2900
Wire Wire Line
	3350 3400 2850 3400
Wire Wire Line
	2850 3400 2850 3300
Wire Wire Line
	2750 3900 2750 3300
Wire Wire Line
	3350 4000 2650 4000
Wire Wire Line
	2650 4000 2650 3300
Wire Wire Line
	3350 4100 2550 4100
Wire Wire Line
	2550 3300 2550 4100
Wire Wire Line
	2550 4450 2550 4100
Connection ~ 2550 4100
Wire Wire Line
	2650 4450 2650 4000
Connection ~ 2650 4000
Wire Wire Line
	2750 4450 2750 3900
Connection ~ 2750 3900
Wire Wire Line
	2550 5150 2550 5050
Wire Wire Line
	2750 3900 3350 3900
Wire Wire Line
	4050 4400 4050 5200
Wire Wire Line
	2550 5050 2650 5050
Wire Wire Line
	2750 5050 2750 4950
Connection ~ 2550 5050
Wire Wire Line
	2550 5050 2550 4950
Wire Wire Line
	2650 4950 2650 5050
Connection ~ 2650 5050
Wire Wire Line
	2650 5050 2750 5050
$Comp
L power:GND #PWR09
U 1 1 60D7ECA4
P 4300 2050
F 0 "#PWR09" H 4300 1800 50  0001 C CNN
F 1 "GND" H 4305 1877 50  0000 C CNN
F 2 "" H 4300 2050 50  0001 C CNN
F 3 "" H 4300 2050 50  0001 C CNN
	1    4300 2050
	1    0    0    -1
$EndComp
Wire Wire Line
	4300 1900 4300 2050
Wire Wire Line
	4300 1600 4300 1450
Wire Wire Line
	4300 1450 4050 1450
Wire Wire Line
	4050 800  4050 1450
Connection ~ 4050 1450
Wire Wire Line
	4050 1450 4050 2200
$Comp
L power:+5V #PWR010
U 1 1 60D832A0
P 5100 800
F 0 "#PWR010" H 5100 650 50  0001 C CNN
F 1 "+5V" H 5115 973 50  0000 C CNN
F 2 "" H 5100 800 50  0001 C CNN
F 3 "" H 5100 800 50  0001 C CNN
	1    5100 800
	1    0    0    -1
$EndComp
$Comp
L power:+5V #PWR011
U 1 1 60D83929
P 6550 800
F 0 "#PWR011" H 6550 650 50  0001 C CNN
F 1 "+5V" H 6565 973 50  0000 C CNN
F 2 "" H 6550 800 50  0001 C CNN
F 3 "" H 6550 800 50  0001 C CNN
	1    6550 800
	1    0    0    -1
$EndComp
Wire Wire Line
	5100 2500 4750 2500
Wire Wire Line
	5300 2700 4750 2700
Wire Wire Line
	5400 2800 4750 2800
Wire Wire Line
	5500 2900 4750 2900
Wire Wire Line
	5600 3000 4750 3000
Wire Wire Line
	5700 3100 4750 3100
Wire Wire Line
	5800 3200 4750 3200
Wire Wire Line
	6650 3500 4750 3500
Wire Wire Line
	6850 3700 4750 3700
Wire Wire Line
	7050 3900 4750 3900
Wire Wire Line
	7250 4100 4750 4100
Wire Wire Line
	8800 3050 8800 2950
Wire Wire Line
	8800 2950 8400 2950
Wire Wire Line
	8400 3650 8800 3650
Wire Wire Line
	8800 3650 8800 3550
Wire Wire Line
	9700 3050 9700 2950
Wire Wire Line
	9700 2950 9900 2950
Wire Wire Line
	9900 2950 9900 3650
Wire Wire Line
	9700 3550 9700 3650
Wire Wire Line
	9700 3650 9900 3650
Wire Wire Line
	9900 5200 9900 3650
Connection ~ 9900 3650
Wire Wire Line
	8900 3050 8900 2900
Wire Wire Line
	9000 3050 9000 2850
Wire Wire Line
	9100 3050 9100 2800
Wire Wire Line
	9200 3050 9200 2750
Wire Wire Line
	8900 3550 8900 3700
Wire Wire Line
	8900 3700 8250 3700
Wire Wire Line
	8250 3700 8250 3400
Wire Wire Line
	8200 3750 9000 3750
Wire Wire Line
	9000 3750 9000 3550
Wire Wire Line
	8200 3600 8200 3750
Wire Wire Line
	9100 3800 9100 3550
Wire Wire Line
	8200 4000 8200 3850
Wire Wire Line
	8200 3850 9200 3850
Wire Wire Line
	9200 3850 9200 3550
Wire Wire Line
	8900 2900 6650 2900
Wire Wire Line
	6650 2900 6650 3500
Wire Wire Line
	9000 2850 6850 2850
Wire Wire Line
	6850 2850 6850 3700
Wire Wire Line
	9100 2800 7050 2800
Wire Wire Line
	7050 2800 7050 3900
Wire Wire Line
	9200 2750 7250 2750
Wire Wire Line
	7250 2750 7250 4100
Wire Wire Line
	9300 2600 9300 3050
Wire Wire Line
	9400 3050 9400 2550
Wire Wire Line
	9400 2550 5400 2550
Wire Wire Line
	5400 2550 5400 2800
Wire Wire Line
	9500 3050 9500 2500
Wire Wire Line
	5600 2500 5600 3000
Wire Wire Line
	9600 3050 9600 2450
Wire Wire Line
	5800 2450 5800 3200
Wire Wire Line
	5100 2500 5100 4200
Wire Wire Line
	5100 4200 9300 4200
Wire Wire Line
	9300 4200 9300 3550
Wire Wire Line
	9400 3550 9400 4300
Wire Wire Line
	9400 4300 5300 4300
Wire Wire Line
	5300 4300 5300 2700
Wire Wire Line
	5500 2900 5500 4400
Wire Wire Line
	5500 4400 9500 4400
Wire Wire Line
	9500 4400 9500 3550
Wire Wire Line
	9600 3550 9600 4500
Wire Wire Line
	9600 4500 5700 4500
Wire Wire Line
	5700 4500 5700 3100
Wire Wire Line
	4750 3400 6550 3400
Wire Wire Line
	4750 3600 6750 3600
Wire Wire Line
	4750 3800 6950 3800
Wire Wire Line
	4750 4000 7150 4000
Wire Wire Line
	5600 2500 9500 2500
Wire Wire Line
	5800 2450 9600 2450
Wire Wire Line
	5100 1950 5100 2500
Connection ~ 5100 2500
Wire Wire Line
	5200 1950 5200 2600
Wire Wire Line
	4750 2600 5200 2600
Connection ~ 5200 2600
Wire Wire Line
	5200 2600 9300 2600
Wire Wire Line
	5300 1950 5300 2700
Connection ~ 5300 2700
Wire Wire Line
	5400 1950 5400 2550
Connection ~ 5400 2550
Wire Wire Line
	5500 1950 5500 2900
Connection ~ 5500 2900
Wire Wire Line
	5600 1950 5600 2500
Connection ~ 5600 2500
Wire Wire Line
	5800 1950 5800 2450
Connection ~ 5800 2450
Wire Wire Line
	5700 1950 5700 3100
Connection ~ 5700 3100
Wire Wire Line
	6550 1950 6550 3400
Connection ~ 6550 3400
Wire Wire Line
	6650 2900 6650 1950
Connection ~ 6650 2900
Wire Wire Line
	6750 1950 6750 3600
Connection ~ 6750 3600
Wire Wire Line
	6850 1950 6850 2850
Connection ~ 6850 2850
Wire Wire Line
	7050 1950 7050 2800
Connection ~ 7050 2800
Wire Wire Line
	6550 3400 8250 3400
Wire Wire Line
	6950 1950 6950 3800
Connection ~ 6950 3800
Wire Wire Line
	6950 3800 9100 3800
Wire Wire Line
	6750 3600 8200 3600
Wire Wire Line
	7150 1950 7150 4000
Connection ~ 7150 4000
Wire Wire Line
	7150 4000 8200 4000
Wire Wire Line
	7250 1950 7250 2750
Connection ~ 7250 2750
Wire Wire Line
	5100 800  5100 1550
Wire Wire Line
	6550 1550 6550 800
Wire Wire Line
	8400 800  8400 1450
Wire Wire Line
	8400 1650 8400 2950
Connection ~ 8400 2950
Wire Wire Line
	8400 2950 8400 3650
$Comp
L power:GND #PWR03
U 1 1 60E8B619
P 2250 3650
F 0 "#PWR03" H 2250 3400 50  0001 C CNN
F 1 "GND" H 2255 3477 50  0000 C CNN
F 2 "" H 2250 3650 50  0001 C CNN
F 3 "" H 2250 3650 50  0001 C CNN
	1    2250 3650
	1    0    0    -1
$EndComp
Wire Wire Line
	2250 3650 2250 3450
Wire Wire Line
	2250 3150 2250 2200
Wire Wire Line
	2000 1500 2250 1500
Wire Wire Line
	2000 1600 2250 1600
Wire Wire Line
	2250 1500 2250 1600
Connection ~ 2250 1600
Wire Wire Line
	2250 1600 2250 2000
Wire Wire Line
	1600 3300 1600 3650
Connection ~ 1600 3300
NoConn ~ 3350 3100
NoConn ~ 3350 3200
NoConn ~ 1400 1100
NoConn ~ 1600 1100
NoConn ~ 1000 1500
NoConn ~ 1000 1600
NoConn ~ 1000 1700
NoConn ~ 1000 1800
NoConn ~ 1000 1900
NoConn ~ 1000 2000
NoConn ~ 1000 2100
NoConn ~ 1000 2200
NoConn ~ 1000 2300
NoConn ~ 1000 2400
NoConn ~ 1000 2500
NoConn ~ 1000 2600
NoConn ~ 1000 2700
NoConn ~ 1000 2800
NoConn ~ 2000 1900
NoConn ~ 2000 2100
NoConn ~ 2000 2200
NoConn ~ 2000 2300
NoConn ~ 2000 2400
NoConn ~ 2000 2700
NoConn ~ 2000 2800
$EndSCHEMATC
